[gd_scene load_steps=3 format=2]

[ext_resource path="res://graphics/grim-reaper.png" type="Texture" id=1]
[ext_resource path="res://scripts/grim-reaper.gd" type="Script" id=2]



[node name="grim-reaper" type="Sprite" index="0"]
texture = ExtResource( 1 )
script = ExtResource( 2 )

